^H:\GITHUB\MINI-GOLF\PLUGINS\NETWORKING-ENET\CALLBACKS.C
/c /ZI /JMC /nologo /W3 /WX- /diagnostics:column /sdl /Od /Oy- /D _WINSOCK_DEPRECATED_NO_WARNINGS /D _MBCS /Gm- /EHsc /RTC1 /MDd /GS /fp:precise /Zc:wchar_t /Zc:forScope /Zc:inline /Fo"DEBUG\\" /Fd"DEBUG\NETWORKING-ENET.PDB" /Gd /TC /analyze- /FC H:\GITHUB\MINI-GOLF\PLUGINS\NETWORKING-ENET\CALLBACKS.C
^H:\GITHUB\MINI-GOLF\PLUGINS\NETWORKING-ENET\COMPRESS.C
/c /ZI /JMC /nologo /W3 /WX- /diagnostics:column /sdl /Od /Oy- /D _WINSOCK_DEPRECATED_NO_WARNINGS /D _MBCS /Gm- /EHsc /RTC1 /MDd /GS /fp:precise /Zc:wchar_t /Zc:forScope /Zc:inline /Fo"DEBUG\\" /Fd"DEBUG\NETWORKING-ENET.PDB" /Gd /TC /analyze- /FC H:\GITHUB\MINI-GOLF\PLUGINS\NETWORKING-ENET\COMPRESS.C
^H:\GITHUB\MINI-GOLF\PLUGINS\NETWORKING-ENET\HOST.C
/c /ZI /JMC /nologo /W3 /WX- /diagnostics:column /sdl /Od /Oy- /D _WINSOCK_DEPRECATED_NO_WARNINGS /D _MBCS /Gm- /EHsc /RTC1 /MDd /GS /fp:precise /Zc:wchar_t /Zc:forScope /Zc:inline /Fo"DEBUG\\" /Fd"DEBUG\NETWORKING-ENET.PDB" /Gd /TC /analyze- /FC H:\GITHUB\MINI-GOLF\PLUGINS\NETWORKING-ENET\HOST.C
^H:\GITHUB\MINI-GOLF\PLUGINS\NETWORKING-ENET\LIST.C
/c /ZI /JMC /nologo /W3 /WX- /diagnostics:column /sdl /Od /Oy- /D _WINSOCK_DEPRECATED_NO_WARNINGS /D _MBCS /Gm- /EHsc /RTC1 /MDd /GS /fp:precise /Zc:wchar_t /Zc:forScope /Zc:inline /Fo"DEBUG\\" /Fd"DEBUG\NETWORKING-ENET.PDB" /Gd /TC /analyze- /FC H:\GITHUB\MINI-GOLF\PLUGINS\NETWORKING-ENET\LIST.C
^H:\GITHUB\MINI-GOLF\PLUGINS\NETWORKING-ENET\PACKET.C
/c /ZI /JMC /nologo /W3 /WX- /diagnostics:column /sdl /Od /Oy- /D _WINSOCK_DEPRECATED_NO_WARNINGS /D _MBCS /Gm- /EHsc /RTC1 /MDd /GS /fp:precise /Zc:wchar_t /Zc:forScope /Zc:inline /Fo"DEBUG\\" /Fd"DEBUG\NETWORKING-ENET.PDB" /Gd /TC /analyze- /FC H:\GITHUB\MINI-GOLF\PLUGINS\NETWORKING-ENET\PACKET.C
^H:\GITHUB\MINI-GOLF\PLUGINS\NETWORKING-ENET\PEER.C
/c /ZI /JMC /nologo /W3 /WX- /diagnostics:column /sdl /Od /Oy- /D _WINSOCK_DEPRECATED_NO_WARNINGS /D _MBCS /Gm- /EHsc /RTC1 /MDd /GS /fp:precise /Zc:wchar_t /Zc:forScope /Zc:inline /Fo"DEBUG\\" /Fd"DEBUG\NETWORKING-ENET.PDB" /Gd /TC /analyze- /FC H:\GITHUB\MINI-GOLF\PLUGINS\NETWORKING-ENET\PEER.C
^H:\GITHUB\MINI-GOLF\PLUGINS\NETWORKING-ENET\PROTOCOL.C
/c /ZI /JMC /nologo /W3 /WX- /diagnostics:column /sdl /Od /Oy- /D _WINSOCK_DEPRECATED_NO_WARNINGS /D _MBCS /Gm- /EHsc /RTC1 /MDd /GS /fp:precise /Zc:wchar_t /Zc:forScope /Zc:inline /Fo"DEBUG\\" /Fd"DEBUG\NETWORKING-ENET.PDB" /Gd /TC /analyze- /FC H:\GITHUB\MINI-GOLF\PLUGINS\NETWORKING-ENET\PROTOCOL.C
^H:\GITHUB\MINI-GOLF\PLUGINS\NETWORKING-ENET\WIN32.C
/c /ZI /JMC /nologo /W3 /WX- /diagnostics:column /sdl /Od /Oy- /D _WINSOCK_DEPRECATED_NO_WARNINGS /D _MBCS /Gm- /EHsc /RTC1 /MDd /GS /fp:precise /Zc:wchar_t /Zc:forScope /Zc:inline /Fo"DEBUG\\" /Fd"DEBUG\NETWORKING-ENET.PDB" /Gd /TC /analyze- /FC H:\GITHUB\MINI-GOLF\PLUGINS\NETWORKING-ENET\WIN32.C
