^C:\USERS\B6015505\SOURCE\REPOS\MARNOLD831\MINI-GOLF\GAME\CORE GAME\GAMETECHRENDERER.CPP|C:\USERS\B6015505\SOURCE\REPOS\MARNOLD831\MINI-GOLF\GAME\CORE GAME\MAIN.CPP|C:\USERS\B6015505\SOURCE\REPOS\MARNOLD831\MINI-GOLF\GAME\CORE GAME\NETWORKEDGAME.CPP|C:\USERS\B6015505\SOURCE\REPOS\MARNOLD831\MINI-GOLF\GAME\CORE GAME\NETWORKPLAYER.CPP|C:\USERS\B6015505\SOURCE\REPOS\MARNOLD831\MINI-GOLF\GAME\CORE GAME\TESTENVIROMENT.CPP|C:\USERS\B6015505\SOURCE\REPOS\MARNOLD831\MINI-GOLF\GAME\CORE GAME\TUTORIALGAME.CPP
C:\USERS\B6015505\SOURCE\REPOS\MARNOLD831\MINI-GOLF\GAME\CORE GAME\DEBUG\VC142.PDB
C:\USERS\B6015505\SOURCE\REPOS\MARNOLD831\MINI-GOLF\GAME\CORE GAME\DEBUG\VC142.IDB
C:\USERS\B6015505\SOURCE\REPOS\MARNOLD831\MINI-GOLF\GAME\CORE GAME\DEBUG\TUTORIALGAME.OBJ
C:\USERS\B6015505\SOURCE\REPOS\MARNOLD831\MINI-GOLF\GAME\CORE GAME\DEBUG\TESTENVIROMENT.OBJ
C:\USERS\B6015505\SOURCE\REPOS\MARNOLD831\MINI-GOLF\GAME\CORE GAME\DEBUG\NETWORKPLAYER.OBJ
C:\USERS\B6015505\SOURCE\REPOS\MARNOLD831\MINI-GOLF\GAME\CORE GAME\DEBUG\NETWORKEDGAME.OBJ
C:\USERS\B6015505\SOURCE\REPOS\MARNOLD831\MINI-GOLF\GAME\CORE GAME\DEBUG\MAIN.OBJ
C:\USERS\B6015505\SOURCE\REPOS\MARNOLD831\MINI-GOLF\GAME\CORE GAME\DEBUG\GAMETECHRENDERER.OBJ
^C:\USERS\B6015505\SOURCE\REPOS\MARNOLD831\MINI-GOLF\GAME\CORE GAME\GAMETECHRENDERER.CPP
C:\USERS\B6015505\SOURCE\REPOS\MARNOLD831\MINI-GOLF\GAME\CORE GAME\DEBUG\VC142.PDB
^C:\USERS\B6015505\SOURCE\REPOS\MARNOLD831\MINI-GOLF\GAME\CORE GAME\MAIN.CPP
C:\USERS\B6015505\SOURCE\REPOS\MARNOLD831\MINI-GOLF\GAME\CORE GAME\DEBUG\VC142.PDB
^C:\USERS\B6015505\SOURCE\REPOS\MARNOLD831\MINI-GOLF\GAME\CORE GAME\NETWORKEDGAME.CPP
C:\USERS\B6015505\SOURCE\REPOS\MARNOLD831\MINI-GOLF\GAME\CORE GAME\DEBUG\VC142.PDB
^C:\USERS\B6015505\SOURCE\REPOS\MARNOLD831\MINI-GOLF\GAME\CORE GAME\NETWORKPLAYER.CPP
C:\USERS\B6015505\SOURCE\REPOS\MARNOLD831\MINI-GOLF\GAME\CORE GAME\DEBUG\VC142.PDB
^C:\USERS\B6015505\SOURCE\REPOS\MARNOLD831\MINI-GOLF\GAME\CORE GAME\TESTENVIROMENT.CPP
C:\USERS\B6015505\SOURCE\REPOS\MARNOLD831\MINI-GOLF\GAME\CORE GAME\DEBUG\VC142.PDB
^C:\USERS\B6015505\SOURCE\REPOS\MARNOLD831\MINI-GOLF\GAME\CORE GAME\TUTORIALGAME.CPP
C:\USERS\B6015505\SOURCE\REPOS\MARNOLD831\MINI-GOLF\GAME\CORE GAME\DEBUG\VC142.PDB
^H:\GITHUB\MINI-GOLF\GAME\CORE GAME\GAMETECHRENDERER.CPP|H:\GITHUB\MINI-GOLF\GAME\CORE GAME\MAIN.CPP|H:\GITHUB\MINI-GOLF\GAME\CORE GAME\NETWORKEDGAME.CPP|H:\GITHUB\MINI-GOLF\GAME\CORE GAME\NETWORKPLAYER.CPP|H:\GITHUB\MINI-GOLF\GAME\CORE GAME\TESTENVIROMENT.CPP|H:\GITHUB\MINI-GOLF\GAME\CORE GAME\TUTORIALGAME.CPP
H:\GITHUB\MINI-GOLF\GAME\CORE GAME\DEBUG\VC142.PDB
H:\GITHUB\MINI-GOLF\GAME\CORE GAME\DEBUG\VC142.IDB
H:\GITHUB\MINI-GOLF\GAME\CORE GAME\DEBUG\TUTORIALGAME.OBJ
H:\GITHUB\MINI-GOLF\GAME\CORE GAME\DEBUG\TESTENVIROMENT.OBJ
H:\GITHUB\MINI-GOLF\GAME\CORE GAME\DEBUG\NETWORKPLAYER.OBJ
H:\GITHUB\MINI-GOLF\GAME\CORE GAME\DEBUG\NETWORKEDGAME.OBJ
H:\GITHUB\MINI-GOLF\GAME\CORE GAME\DEBUG\MAIN.OBJ
H:\GITHUB\MINI-GOLF\GAME\CORE GAME\DEBUG\GAMETECHRENDERER.OBJ
^H:\GITHUB\MINI-GOLF\GAME\CORE GAME\GAMETECHRENDERER.CPP
H:\GITHUB\MINI-GOLF\GAME\CORE GAME\DEBUG\VC142.PDB
^H:\GITHUB\MINI-GOLF\GAME\CORE GAME\MAIN.CPP
H:\GITHUB\MINI-GOLF\GAME\CORE GAME\DEBUG\VC142.PDB
^H:\GITHUB\MINI-GOLF\GAME\CORE GAME\NETWORKEDGAME.CPP
H:\GITHUB\MINI-GOLF\GAME\CORE GAME\DEBUG\VC142.PDB
^H:\GITHUB\MINI-GOLF\GAME\CORE GAME\NETWORKPLAYER.CPP
H:\GITHUB\MINI-GOLF\GAME\CORE GAME\DEBUG\VC142.PDB
^H:\GITHUB\MINI-GOLF\GAME\CORE GAME\TESTENVIROMENT.CPP
H:\GITHUB\MINI-GOLF\GAME\CORE GAME\DEBUG\VC142.PDB
^H:\GITHUB\MINI-GOLF\GAME\CORE GAME\TUTORIALGAME.CPP
H:\GITHUB\MINI-GOLF\GAME\CORE GAME\DEBUG\VC142.PDB
